…
    ## Connection succeeded.

    ## Reading results

    ## Converting into an R data.table

``` r
inputs[[1]]
```

    ## # A tibble: 350 × 9
    ##    Available varia…¹ Varia…² Units Model Model…³ Scena…⁴ Varia…⁵ Model…⁶ Scena…⁷
    ##    <chr>             <chr>   <chr> <chr> <chr>   <chr>   <chr>   <chr>   <chr>  
    ##  1 huss_BNU-ESM_r1i… Specif… kg k… Beij… r1i1p1  RCP 4.5 huss    BNU-ESM rcp45  
    ##  2 huss_BNU-ESM_r1i… Specif… kg k… Beij… r1i1p1  RCP 8.5 huss    BNU-ESM rcp85  
    ##  3 huss_CCSM4_r6i1p… Specif… kg k… Comm… r6i1p1  RCP 4.5 huss    CCSM4   rcp45  
    ##  4 huss_CCSM4_r6i1p… Specif… kg k… Comm… r6i1p1  RCP 8.5 huss    CCSM4   rcp85  
    ##  5 huss_CNRM-CM5_r1… Specif… kg k… Cent… r1i1p1  RCP 4.5 huss    CNRM-C… rcp45  
    ##  6 huss_CNRM-CM5_r1… Specif… kg k… Cent… r1i1p1  RCP 8.5 huss    CNRM-C… rcp85  
    ##  7 huss_CSIRO-Mk3-6… Specif… kg k… Comm… r1i1p1  RCP 4.5 huss    CSIRO-… rcp45  
    ##  8 huss_CSIRO-Mk3-6… Specif… kg k… Comm… r1i1p1  RCP 8.5 huss    CSIRO-… rcp85  
    ##  9 huss_CanESM2_r1i… Specif… kg k… Cana… r1i1p1  RCP 4.5 huss    CanESM2 rcp45  
    ## 10 huss_CanESM2_r1i… Specif… kg k… Cana… r1i1p1  RCP 8.5 huss    CanESM2 rcp85  
    ## # … with 340 more rows, and abbreviated variable names ¹​`Available variable`,
    ## #   ²​Variable, ³​`Model ensemble type (only CCSM4 relevant)`, ⁴​Scenario,
    ## #   ⁵​`Variable abbreviation`, ⁶​`Model abbreviation`, ⁷​`Scenario abbreviation`
…
